^C:\USERS\RISOVAXA\DOCUMENTS\VISUAL STUDIO 2017\PROJECTS\MY_SHARED_PTR\MY_SHARED_PTR\PCH.CPP
/c /ZI /JMC /nologo /W3 /WX- /diagnostics:classic /sdl /Od /Oy- /D WIN32 /D _DEBUG /D _CONSOLE /D _UNICODE /D UNICODE /Gm- /EHsc /RTC1 /MDd /GS /fp:precise /permissive- /Zc:wchar_t /Zc:forScope /Zc:inline /Yc"pch.h" /Fp"DEBUG\MY_SHARED_PTR.PCH" /Fo"DEBUG\\" /Fd"DEBUG\VC141.PDB" /Gd /TP /analyze- /FC C:\USERS\RISOVAXA\DOCUMENTS\VISUAL STUDIO 2017\PROJECTS\MY_SHARED_PTR\MY_SHARED_PTR\PCH.CPP
^C:\USERS\RISOVAXA\DOCUMENTS\VISUAL STUDIO 2017\PROJECTS\MY_SHARED_PTR\MY_SHARED_PTR\MY_SHARED_PTR.CPP
/c /ZI /JMC /nologo /W3 /WX- /diagnostics:classic /sdl /Od /Oy- /D WIN32 /D _DEBUG /D _CONSOLE /D _UNICODE /D UNICODE /Gm- /EHsc /RTC1 /MDd /GS /fp:precise /permissive- /Zc:wchar_t /Zc:forScope /Zc:inline /Yu"pch.h" /Fp"DEBUG\MY_SHARED_PTR.PCH" /Fo"DEBUG\\" /Fd"DEBUG\VC141.PDB" /Gd /TP /analyze- /FC C:\USERS\RISOVAXA\DOCUMENTS\VISUAL STUDIO 2017\PROJECTS\MY_SHARED_PTR\MY_SHARED_PTR\MY_SHARED_PTR.CPP
